M2 Visualisation dâ€™informations sur R
…
Charger le jeu de donnÃ©es economics contenu dans le package ggplot2 en mÃ©moire, puis consulter la page dâ€™aide du jeu de donnÃ©es pour en prendre connaissance. Ensuite, ajouter au tableau les variables u_rate et e_rate, respectivement le taux de chÃ´mage et le taux dâ€™emploi ;

data(economics)
economics <- economics %>%
mutate(u_rate = unemploy / pop,
e_rate = 1- u_rate)

economics

## # A tibble: 574 x 8
##    date         pce    pop psavert uempmed unemploy u_rate e_rate
##    <date>     <dbl>  <int>   <dbl>   <dbl>    <int>  <dbl>  <dbl>
##  1 1967-07-01  507. 198712    12.5     4.5     2944 0.0148  0.985
##  2 1967-08-01  510. 198911    12.5     4.7     2945 0.0148  0.985
##  3 1967-09-01  516. 199113    11.7     4.6     2958 0.0149  0.985
##  4 1967-10-01  513. 199311    12.5     4.9     3143 0.0158  0.984
##  5 1967-11-01  518. 199498    12.5     4.7     3066 0.0154  0.985
##  6 1967-12-01  526. 199657    12.1     4.8     3018 0.0151  0.985
##  7 1968-01-01  532. 199808    11.7     5.1     2878 0.0144  0.986
##  8 1968-02-01  534. 199920    12.2     4.5     3001 0.0150  0.985
##  9 1968-03-01  545. 200056    11.6     4.1     2877 0.0144  0.986
## 10 1968-04-01  545. 200208    12.2     4.6     2709 0.0135  0.986
## # ... with 564 more rows
…
